<?xml version="1.0" encoding="UTF-8" standalone="no"?>
<!-- Created with Inkscape (http://www.inkscape.org/) -->

<svg
   xmlns:dc="http://purl.org/dc/elements/1.1/"
   xmlns:cc="http://creativecommons.org/ns#"
   xmlns:rdf="http://www.w3.org/1999/02/22-rdf-syntax-ns#"
   xmlns:svg="http://www.w3.org/2000/svg"
   xmlns="http://www.w3.org/2000/svg"
   xmlns:sodipodi="http://sodipodi.sourceforge.net/DTD/sodipodi-0.dtd"
   xmlns:inkscape="http://www.inkscape.org/namespaces/inkscape"
   width="210mm"
   height="297mm"
   viewBox="0 0 210 297"
   version="1.1"
   id="svg8"
   sodipodi:docname="petras-colors-svg.svg"
   inkscape:version="0.92.3 (2405546, 2018-03-11)">
  <defs
     id="defs2">
    <filter
       inkscape:collect="always"
       style="color-interpolation-filters:sRGB"
       id="filter1046"
       x="-0.036"
       width="1.072"
       y="-0.036"
       height="1.072">
      <feGaussianBlur
         inkscape:collect="always"
         stdDeviation="0.11060973"
         id="feGaussianBlur1048" />
    </filter>
  </defs>
  <sodipodi:namedview
     id="base"
     pagecolor="#ffffff"
     bordercolor="#666666"
     borderopacity="1.0"
     inkscape:pageopacity="0.0"
     inkscape:pageshadow="2"
     inkscape:zoom="0.7"
     inkscape:cx="-613.64389"
     inkscape:cy="337.82146"
     inkscape:document-units="mm"
     inkscape:current-layer="layer1"
     showgrid="false"
     inkscape:window-width="1366"
     inkscape:window-height="704"
     inkscape:window-x="0"
     inkscape:window-y="27"
     inkscape:window-maximized="1">
    <inkscape:grid
       type="xygrid"
       id="grid849" />
  </sodipodi:namedview>
  <metadata
     id="metadata5">
    <rdf:RDF>
      <cc:Work
         rdf:about="">
        <dc:format>image/svg+xml</dc:format>
        <dc:type
           rdf:resource="http://purl.org/dc/dcmitype/StillImage" />
        <dc:title></dc:title>
      </cc:Work>
    </rdf:RDF>
  </metadata>
  <g
     inkscape:label="Layer 1"
     inkscape:groupmode="layer"
     id="layer1">
    <rect
       style="opacity:1;fill:#b3f029;fill-opacity:1;stroke:#fffffe;stroke-width:1.3189826;stroke-linecap:round;stroke-linejoin:bevel;stroke-miterlimit:4;stroke-dasharray:5.27593045, 5.27593045;stroke-dashoffset:0;stroke-opacity:1;paint-order:markers fill stroke"
       id="rect815"
       width="201.86978"
       height="33.145256"
       x="4.3305779"
       y="3.5468869" />
    <rect
       style="opacity:1;fill:#b3f029;fill-opacity:1;stroke:#fffffe;stroke-width:1.09211731;stroke-linecap:round;stroke-linejoin:bevel;stroke-miterlimit:4;stroke-dasharray:4.36846846, 4.36846846;stroke-dashoffset:0;stroke-opacity:1;paint-order:markers fill stroke"
       id="rect817"
       width="99.759514"
       height="88.367264"
       x="4.4263115"
       y="38.193562" />
    <rect
       y="38.193562"
       x="106.00391"
       height="88.367264"
       width="99.759514"
       id="rect819"
       style="opacity:1;fill:#b3f029;fill-opacity:1;stroke:#fffffe;stroke-width:1.09211731;stroke-linecap:round;stroke-linejoin:bevel;stroke-miterlimit:4;stroke-dasharray:4.36846846, 4.36846846;stroke-dashoffset:0;stroke-opacity:1;paint-order:markers fill stroke" />
    <rect
       y="129.03568"
       x="4.6885695"
       height="60.38575"
       width="65.598625"
       id="rect821"
       style="opacity:1;fill:#b3f029;fill-opacity:1;stroke:#fffffe;stroke-width:0.7320841;stroke-linecap:round;stroke-linejoin:bevel;stroke-miterlimit:4;stroke-dasharray:2.92833601, 2.92833601;stroke-dashoffset:0;stroke-opacity:1;paint-order:markers fill stroke" />
    <rect
       style="opacity:1;fill:#b3f029;fill-opacity:1;stroke:#fffffe;stroke-width:0.7320841;stroke-linecap:round;stroke-linejoin:bevel;stroke-miterlimit:4;stroke-dasharray:2.92833601, 2.92833601;stroke-dashoffset:0;stroke-opacity:1;paint-order:markers fill stroke"
       id="rect823"
       width="65.598625"
       height="60.38575"
       x="72.383629"
       y="129.03568" />
    <rect
       y="129.03568"
       x="140.07883"
       height="60.38575"
       width="65.598625"
       id="rect825"
       style="opacity:1;fill:#b3f029;fill-opacity:1;stroke:#fffffe;stroke-width:0.7320841;stroke-linecap:round;stroke-linejoin:bevel;stroke-miterlimit:4;stroke-dasharray:2.92833601, 2.92833601;stroke-dashoffset:0;stroke-opacity:1;paint-order:markers fill stroke" />
    <rect
       style="opacity:1;fill:#b3f029;fill-opacity:1;stroke:#fffffe;stroke-width:0.5052678;stroke-linecap:round;stroke-linejoin:bevel;stroke-miterlimit:4;stroke-dasharray:2.0210709, 2.0210709;stroke-dashoffset:0;stroke-opacity:1;paint-order:markers fill stroke"
       id="rect827"
       width="47.441994"
       height="39.772926"
       x="4.9548173"
       y="191.99419" />
    <rect
       y="234.85611"
       x="4.9548173"
       height="39.772926"
       width="47.441994"
       id="rect829"
       style="opacity:1;fill:#b3f029;fill-opacity:1;stroke:#fffffe;stroke-width:0.5052678;stroke-linecap:round;stroke-linejoin:bevel;stroke-miterlimit:4;stroke-dasharray:2.0210709, 2.0210709;stroke-dashoffset:0;stroke-opacity:1;paint-order:markers fill stroke" />
    <rect
       y="191.99419"
       x="55.468906"
       height="39.772926"
       width="47.441994"
       id="rect831"
       style="opacity:1;fill:#b3f029;fill-opacity:1;stroke:#fffffe;stroke-width:0.5052678;stroke-linecap:round;stroke-linejoin:bevel;stroke-miterlimit:4;stroke-dasharray:2.0210709, 2.0210709;stroke-dashoffset:0;stroke-opacity:1;paint-order:markers fill stroke" />
    <rect
       style="opacity:1;fill:#b3f029;fill-opacity:1;stroke:#fffffe;stroke-width:0.5052678;stroke-linecap:round;stroke-linejoin:bevel;stroke-miterlimit:4;stroke-dasharray:2.0210709, 2.0210709;stroke-dashoffset:0;stroke-opacity:1;paint-order:markers fill stroke"
       id="rect833"
       width="47.441994"
       height="39.772926"
       x="55.468906"
       y="234.85611" />
    <rect
       style="opacity:1;fill:#b3f029;fill-opacity:1;stroke:#fffffe;stroke-width:0.5052678;stroke-linecap:round;stroke-linejoin:bevel;stroke-miterlimit:4;stroke-dasharray:2.0210709, 2.0210709;stroke-dashoffset:0;stroke-opacity:1;paint-order:markers fill stroke"
       id="rect835"
       width="47.441994"
       height="39.772926"
       x="105.98301"
       y="191.99419" />
    <rect
       y="234.85611"
       x="105.98301"
       height="39.772926"
       width="47.441994"
       id="rect837"
       style="opacity:1;fill:#b3f029;fill-opacity:1;stroke:#fffffe;stroke-width:0.5052678;stroke-linecap:round;stroke-linejoin:bevel;stroke-miterlimit:4;stroke-dasharray:2.0210709, 2.0210709;stroke-dashoffset:0;stroke-opacity:1;paint-order:markers fill stroke" />
    <rect
       y="191.99419"
       x="157.04614"
       height="39.772926"
       width="47.441994"
       id="rect839"
       style="opacity:1;fill:#b3f029;fill-opacity:1;stroke:#fffffe;stroke-width:0.5052678;stroke-linecap:round;stroke-linejoin:bevel;stroke-miterlimit:4;stroke-dasharray:2.0210709, 2.0210709;stroke-dashoffset:0;stroke-opacity:1;paint-order:markers fill stroke" />
    <rect
       style="opacity:1;fill:#b3f029;fill-opacity:1;stroke:#fffffe;stroke-width:0.5052678;stroke-linecap:round;stroke-linejoin:bevel;stroke-miterlimit:4;stroke-dasharray:2.0210709, 2.0210709;stroke-dashoffset:0;stroke-opacity:1;paint-order:markers fill stroke"
       id="rect841"
       width="47.441994"
       height="39.772926"
       x="157.04614"
       y="234.85611" />
    <rect
       y="277.98599"
       x="4.132164"
       height="16.169563"
       width="202.2666"
       id="rect843"
       style="opacity:1;fill:#b3f029;fill-opacity:1;stroke:#fffffe;stroke-width:0.92215508;stroke-linecap:round;stroke-linejoin:bevel;stroke-miterlimit:4;stroke-dasharray:3.68862046, 3.68862046;stroke-dashoffset:0;stroke-opacity:1;paint-order:markers fill stroke" />
    <path
       style="opacity:1;fill:#b3f029;fill-opacity:1;stroke:#fffffe;stroke-width:1.2797302;stroke-linecap:round;stroke-linejoin:bevel;stroke-miterlimit:4;stroke-dasharray:5.11892048, 5.11892048;stroke-dashoffset:0;stroke-opacity:1;paint-order:markers fill stroke"
       id="path845"
       sodipodi:type="arc"
       sodipodi:cx="-237.04852"
       sodipodi:cy="32.852219"
       sodipodi:rx="34.360012"
       sodipodi:ry="34.359894"
       sodipodi:start="0"
       sodipodi:end="6.2346477"
       sodipodi:open="true"
       d="m -202.68851,32.852219 a 34.360012,34.359894 0 0 1 -33.94308,34.357364 34.360012,34.359894 0 0 1 -34.76683,-33.523573 34.360012,34.359894 0 0 1 33.09936,-35.1709209 34.360012,34.359894 0 0 1 35.57008,32.6700369" />
    <path
       style="opacity:1;fill:#7e7673;fill-opacity:1;stroke:#fffffe;stroke-width:1.3023994;stroke-linecap:round;stroke-linejoin:bevel;stroke-miterlimit:4;stroke-dasharray:5.20959763, 5.20959763000000020;stroke-dashoffset:0;stroke-opacity:1;paint-order:markers fill stroke"
       id="path847"
       sodipodi:type="arc"
       sodipodi:cx="-166.62587"
       sodipodi:cy="39.536583"
       sodipodi:rx="19.348717"
       sodipodi:ry="19.348717"
       sodipodi:start="0"
       sodipodi:end="6.2346477"
       sodipodi:open="true"
       d="m -147.27715,39.536583 a 19.348717,19.348717 0 0 1 -19.11394,19.347292 19.348717,19.348717 0 0 1 -19.5778,-18.877768 19.348717,19.348717 0 0 1 18.63882,-19.805422 19.348717,19.348717 0 0 1 20.03013,18.397126" />
    <rect
       y="95.916664"
       x="-259.29166"
       height="33.145256"
       width="201.86978"
       id="rect851"
       style="opacity:1;fill:#b3f029;fill-opacity:1;stroke:#fffffe;stroke-width:1.3189826;stroke-linecap:round;stroke-linejoin:bevel;stroke-miterlimit:4;stroke-dasharray:5.27593045, 5.27593045;stroke-dashoffset:0;stroke-opacity:1;paint-order:markers fill stroke" />
    <path
       style="fill:none;stroke:#000000;stroke-width:0.26458332px;stroke-linecap:butt;stroke-linejoin:miter;stroke-opacity:1"
       d="M -259.29163,154.12499 V 132.95833"
       id="path853"
       inkscape:connector-curvature="0" />
    <path
       inkscape:connector-curvature="0"
       id="path855"
       d="M -241.05945,154.12499 V 132.95833"
       style="fill:none;stroke:#000000;stroke-width:0.26458332px;stroke-linecap:butt;stroke-linejoin:miter;stroke-opacity:1" />
    <path
       style="fill:none;stroke:#000000;stroke-width:0.26458332px;stroke-linecap:butt;stroke-linejoin:miter;stroke-opacity:1"
       d="M -222.82726,154.12499 V 132.95833"
       id="path857"
       inkscape:connector-curvature="0" />
    <path
       inkscape:connector-curvature="0"
       id="path859"
       d="M -204.59507,154.12499 V 132.95833"
       style="fill:none;stroke:#000000;stroke-width:0.26458332px;stroke-linecap:butt;stroke-linejoin:miter;stroke-opacity:1" />
    <path
       style="fill:none;stroke:#000000;stroke-width:0.26458332px;stroke-linecap:butt;stroke-linejoin:miter;stroke-opacity:1"
       d="M -95.201917,154.12499 V 132.95833"
       id="path861"
       inkscape:connector-curvature="0" />
    <path
       inkscape:connector-curvature="0"
       id="path863"
       d="M -76.96972,154.12499 V 132.95833"
       style="fill:none;stroke:#000000;stroke-width:0.26458332px;stroke-linecap:butt;stroke-linejoin:miter;stroke-opacity:1" />
    <path
       style="fill:none;stroke:#000000;stroke-width:0.26458332px;stroke-linecap:butt;stroke-linejoin:miter;stroke-opacity:1"
       d="M -186.36288,154.12499 V 132.95833"
       id="path865"
       inkscape:connector-curvature="0" />
    <path
       inkscape:connector-curvature="0"
       id="path867"
       d="M -168.13069,154.12499 V 132.95833"
       style="fill:none;stroke:#000000;stroke-width:0.26458332px;stroke-linecap:butt;stroke-linejoin:miter;stroke-opacity:1" />
    <path
       style="fill:none;stroke:#000000;stroke-width:0.26458332px;stroke-linecap:butt;stroke-linejoin:miter;stroke-opacity:1"
       d="M -149.89851,154.12499 V 132.95833"
       id="path869"
       inkscape:connector-curvature="0" />
    <path
       inkscape:connector-curvature="0"
       id="path871"
       d="M -131.66631,154.12499 V 132.95833"
       style="fill:none;stroke:#000000;stroke-width:0.26458332px;stroke-linecap:butt;stroke-linejoin:miter;stroke-opacity:1" />
    <path
       style="fill:none;stroke:#000000;stroke-width:0.26458332px;stroke-linecap:butt;stroke-linejoin:miter;stroke-opacity:1"
       d="M -113.43411,154.12499 V 132.95833"
       id="path873"
       inkscape:connector-curvature="0" />
    <path
       inkscape:connector-curvature="0"
       id="path875"
       d="M -58.737524,154.12499 V 132.95833"
       style="fill:none;stroke:#000000;stroke-width:0.26458332px;stroke-linecap:butt;stroke-linejoin:miter;stroke-opacity:1" />
    <g
       id="g939"
       transform="matrix(1,0,0,13.825005,0,-56.055788)">
      <path
         style="fill:none;stroke:#000000;stroke-width:0.26458332px;stroke-linecap:butt;stroke-linejoin:miter;stroke-opacity:1"
         d="M 5.0030967,25.53748 V 4.37082"
         id="path877"
         inkscape:connector-curvature="0" />
      <path
         inkscape:connector-curvature="0"
         id="path879"
         d="M 23.187181,25.53748 V 4.37082"
         style="fill:none;stroke:#000000;stroke-width:0.26458332px;stroke-linecap:butt;stroke-linejoin:miter;stroke-opacity:1" />
      <path
         style="fill:none;stroke:#000000;stroke-width:0.26458332px;stroke-linecap:butt;stroke-linejoin:miter;stroke-opacity:1"
         d="M 41.371263,25.53748 V 4.37082"
         id="path881"
         inkscape:connector-curvature="0" />
      <path
         inkscape:connector-curvature="0"
         id="path883"
         d="M 59.555348,25.53748 V 4.37082"
         style="fill:none;stroke:#000000;stroke-width:0.26458332px;stroke-linecap:butt;stroke-linejoin:miter;stroke-opacity:1" />
      <path
         style="fill:none;stroke:#000000;stroke-width:0.26458332px;stroke-linecap:butt;stroke-linejoin:miter;stroke-opacity:1"
         d="M 168.65984,25.53748 V 4.37082"
         id="path885"
         inkscape:connector-curvature="0" />
      <path
         inkscape:connector-curvature="0"
         id="path887"
         d="M 186.84392,25.53748 V 4.37082"
         style="fill:none;stroke:#000000;stroke-width:0.26458332px;stroke-linecap:butt;stroke-linejoin:miter;stroke-opacity:1" />
      <path
         style="fill:none;stroke:#000000;stroke-width:0.26458332px;stroke-linecap:butt;stroke-linejoin:miter;stroke-opacity:1"
         d="M 77.739433,25.53748 V 4.37082"
         id="path889"
         inkscape:connector-curvature="0" />
      <path
         inkscape:connector-curvature="0"
         id="path891"
         d="M 95.923522,25.53748 V 4.37082"
         style="fill:none;stroke:#000000;stroke-width:0.26458332px;stroke-linecap:butt;stroke-linejoin:miter;stroke-opacity:1" />
      <path
         style="fill:none;stroke:#000000;stroke-width:0.26458332px;stroke-linecap:butt;stroke-linejoin:miter;stroke-opacity:1"
         d="M 114.1076,25.53748 V 4.37082"
         id="path893"
         inkscape:connector-curvature="0" />
      <path
         inkscape:connector-curvature="0"
         id="path895"
         d="M 132.29168,25.53748 V 4.37082"
         style="fill:none;stroke:#000000;stroke-width:0.26458332px;stroke-linecap:butt;stroke-linejoin:miter;stroke-opacity:1" />
      <path
         style="fill:none;stroke:#000000;stroke-width:0.26458332px;stroke-linecap:butt;stroke-linejoin:miter;stroke-opacity:1"
         d="M 150.47576,25.53748 V 4.37082"
         id="path897"
         inkscape:connector-curvature="0" />
      <path
         inkscape:connector-curvature="0"
         id="path899"
         d="M 205.02801,25.53748 V 4.37082"
         style="fill:none;stroke:#000000;stroke-width:0.26458332px;stroke-linecap:butt;stroke-linejoin:miter;stroke-opacity:1" />
    </g>
    <flowRoot
       xml:space="preserve"
       id="flowRoot941"
       style="font-style:normal;font-weight:normal;font-size:40px;line-height:1.25;font-family:sans-serif;letter-spacing:0px;word-spacing:0px;fill:#000000;fill-opacity:1;stroke:none"
       transform="matrix(0.26458333,0,0,0.26458333,147.53278,-25.123336)"><flowRegion
         id="flowRegion943"><rect
           id="rect945"
           width="1240"
           height="920"
           x="-640"
           y="-797.48029" /></flowRegion><flowPara
         id="flowPara947"></flowPara><flowPara
         id="flowPara949">/* COLORS</flowPara><flowPara
         id="flowPara951"></flowPara><flowPara
         id="flowPara953">primary:  </flowPara><flowPara
         id="flowPara955">    grays</flowPara><flowPara
         id="flowPara957">            Rind Brown #7E7673</flowPara><flowPara
         id="flowPara959">            Rind Purple #78727c </flowPara><flowPara
         id="flowPara961">            Rind Gray ##636565</flowPara><flowPara
         id="flowPara963">    primaries</flowPara><flowPara
         id="flowPara965">            Avocado Flesh #FCF3B4            </flowPara><flowPara
         id="flowPara987">Avocado Green #d4eb86    secondaries            Seed Brown #99522f            Seed Orange #e27e36            Seed Deep Red #9D2E11     blacks            Rind Deep Purp #604754            Rind Deep Brwn #4f2d0e            Rind Deep End #262611</flowPara><flowPara
         id="flowPara967" /><flowPara
         id="flowPara969" /><flowPara
         id="flowPara971" /><flowPara
         id="flowPara973" /><flowPara
         id="flowPara975" /><flowPara
         id="flowPara977" /><flowPara
         id="flowPara979" /><flowPara
         id="flowPara981" /><flowPara
         id="flowPara983" /><flowPara
         id="flowPara985" /></flowRoot>    <flowRoot
       xml:space="preserve"
       id="flowRoot989"
       style="font-style:normal;font-weight:normal;font-size:40px;line-height:1.25;font-family:sans-serif;letter-spacing:0px;word-spacing:0px;fill:#000000;fill-opacity:1;stroke:none"
       transform="scale(0.26458333)"><flowRegion
         id="flowRegion991"><rect
           id="rect993"
           width="240"
           height="120"
           x="-680"
           y="-37.480316" /></flowRegion><flowPara
         id="flowPara995">#7E7673</flowPara><flowPara
         id="flowPara997">Rind Brown</flowPara></flowRoot>    <path
       d="m -208.07029,202.18549 a 6.5474653,6.5474429 0 0 1 -6.46801,6.54696 6.5474653,6.5474429 0 0 1 -6.62499,-6.38808 6.5474653,6.5474429 0 0 1 6.30724,-6.70199 6.5474653,6.5474429 0 0 1 6.77805,6.22543"
       sodipodi:open="true"
       sodipodi:end="6.2346477"
       sodipodi:start="0"
       sodipodi:ry="6.5474429"
       sodipodi:rx="6.5474653"
       sodipodi:cy="202.18549"
       sodipodi:cx="-214.61775"
       sodipodi:type="arc"
       id="path1018"
       style="opacity:1;fill:#b3f029;fill-opacity:1;stroke:#fffffe;stroke-width:0.24385874;stroke-linecap:round;stroke-linejoin:bevel;stroke-miterlimit:4;stroke-dasharray:0.9754349, 0.9754349;stroke-dashoffset:0;stroke-opacity:1;paint-order:markers fill stroke" />
    <path
       d="m -197.51139,201.87173 a 3.686991,3.686991 0 0 1 -3.64225,3.68672 3.686991,3.686991 0 0 1 -3.73064,-3.59725 3.686991,3.686991 0 0 1 3.55171,-3.77401 3.686991,3.686991 0 0 1 3.81684,3.50566"
       sodipodi:open="true"
       sodipodi:end="6.2346477"
       sodipodi:start="0"
       sodipodi:ry="3.686991"
       sodipodi:rx="3.686991"
       sodipodi:cy="201.87173"
       sodipodi:cx="-201.19838"
       sodipodi:type="arc"
       id="path1020"
       style="opacity:1;fill:#7e7673;fill-opacity:1;stroke:#fffffe;stroke-width:0.24817847;stroke-linecap:round;stroke-linejoin:bevel;stroke-miterlimit:4;stroke-dasharray:0.99271386, 0.99271386;stroke-dashoffset:0;stroke-opacity:1;paint-order:markers fill stroke" />
    <path
       style="opacity:1;fill:#b3f029;fill-opacity:1;stroke:#fffffe;stroke-width:0.24385874;stroke-linecap:round;stroke-linejoin:bevel;stroke-miterlimit:4;stroke-dasharray:0.9754349, 0.9754349;stroke-dashoffset:0;stroke-opacity:1;paint-order:markers fill stroke"
       id="path1026"
       sodipodi:type="arc"
       sodipodi:cx="-214.61775"
       sodipodi:cy="217.00218"
       sodipodi:rx="6.5474653"
       sodipodi:ry="6.5474429"
       sodipodi:start="0"
       sodipodi:end="6.2346477"
       sodipodi:open="true"
       d="m -208.07029,217.00218 a 6.5474653,6.5474429 0 0 1 -6.46801,6.54696 6.5474653,6.5474429 0 0 1 -6.62499,-6.38807 6.5474653,6.5474429 0 0 1 6.30724,-6.70199 6.5474653,6.5474429 0 0 1 6.77805,6.22543" />
    <path
       style="opacity:1;fill:#fcf3b4;fill-opacity:1;stroke:#000000;stroke-width:0.24817847;stroke-linecap:round;stroke-linejoin:bevel;stroke-miterlimit:4;stroke-dasharray:0.99271386, 0.99271385999999995;stroke-dashoffset:0;stroke-opacity:1;paint-order:markers fill stroke;filter:url(#filter1046)"
       id="path1028"
       sodipodi:type="arc"
       sodipodi:cx="-201.19838"
       sodipodi:cy="216.68843"
       sodipodi:rx="3.686991"
       sodipodi:ry="3.686991"
       sodipodi:start="0"
       sodipodi:end="6.2346477"
       sodipodi:open="true"
       d="m -197.51139,216.68843 a 3.686991,3.686991 0 0 1 -3.64225,3.68672 3.686991,3.686991 0 0 1 -3.73064,-3.59725 3.686991,3.686991 0 0 1 3.55171,-3.77402 3.686991,3.686991 0 0 1 3.81684,3.50566" />
    <path
       style="opacity:1;fill:#b3f029;fill-opacity:1;stroke:#fffffe;stroke-width:0.24385874;stroke-linecap:round;stroke-linejoin:bevel;stroke-miterlimit:4;stroke-dasharray:0.9754349, 0.9754349;stroke-dashoffset:0;stroke-opacity:1;paint-order:markers fill stroke"
       id="path1030"
       sodipodi:type="arc"
       sodipodi:cx="-214.61775"
       sodipodi:cy="232.34758"
       sodipodi:rx="6.5474653"
       sodipodi:ry="6.5474429"
       sodipodi:start="0"
       sodipodi:end="6.2346477"
       sodipodi:open="true"
       d="m -208.07029,232.34758 a 6.5474653,6.5474429 0 0 1 -6.46801,6.54696 6.5474653,6.5474429 0 0 1 -6.62499,-6.38808 6.5474653,6.5474429 0 0 1 6.30724,-6.70199 6.5474653,6.5474429 0 0 1 6.77805,6.22544" />
    <path
       style="opacity:1;fill:#656500;fill-opacity:0;stroke:#000000;stroke-width:0.24817847;stroke-linecap:round;stroke-linejoin:bevel;stroke-miterlimit:4;stroke-dasharray:0.99271386, 0.99271385999999995;stroke-dashoffset:0;stroke-opacity:1;paint-order:markers fill stroke"
       id="path1032"
       sodipodi:type="arc"
       sodipodi:cx="-201.19838"
       sodipodi:cy="232.03383"
       sodipodi:rx="3.686991"
       sodipodi:ry="3.686991"
       sodipodi:start="0"
       sodipodi:end="6.2346477"
       sodipodi:open="true"
       d="m -197.51139,232.03383 a 3.686991,3.686991 0 0 1 -3.64225,3.68672 3.686991,3.686991 0 0 1 -3.73064,-3.59725 3.686991,3.686991 0 0 1 3.55171,-3.77402 3.686991,3.686991 0 0 1 3.81684,3.50566" />
    <path
       d="m -208.07029,247.16428 a 6.5474653,6.5474429 0 0 1 -6.46801,6.54696 6.5474653,6.5474429 0 0 1 -6.62499,-6.38808 6.5474653,6.5474429 0 0 1 6.30724,-6.70199 6.5474653,6.5474429 0 0 1 6.77805,6.22543"
       sodipodi:open="true"
       sodipodi:end="6.2346477"
       sodipodi:start="0"
       sodipodi:ry="6.5474429"
       sodipodi:rx="6.5474653"
       sodipodi:cy="247.16428"
       sodipodi:cx="-214.61775"
       sodipodi:type="arc"
       id="path1034"
       style="opacity:1;fill:#b3f029;fill-opacity:1;stroke:#fffffe;stroke-width:0.24385874;stroke-linecap:round;stroke-linejoin:bevel;stroke-miterlimit:4;stroke-dasharray:0.9754349, 0.9754349;stroke-dashoffset:0;stroke-opacity:1;paint-order:markers fill stroke" />
    <path
       d="m -197.51139,246.85052 a 3.686991,3.686991 0 0 1 -3.64225,3.68672 3.686991,3.686991 0 0 1 -3.73064,-3.59725 3.686991,3.686991 0 0 1 3.55171,-3.77401 3.686991,3.686991 0 0 1 3.81684,3.50566"
       sodipodi:open="true"
       sodipodi:end="6.2346477"
       sodipodi:start="0"
       sodipodi:ry="3.686991"
       sodipodi:rx="3.686991"
       sodipodi:cy="246.85052"
       sodipodi:cx="-201.19838"
       sodipodi:type="arc"
       id="path1036"
       style="opacity:1;fill:#7e7673;fill-opacity:1;stroke:#fffffe;stroke-width:0.24817847;stroke-linecap:round;stroke-linejoin:bevel;stroke-miterlimit:4;stroke-dasharray:0.99271386, 0.99271386;stroke-dashoffset:0;stroke-opacity:1;paint-order:markers fill stroke" />
    <flowRoot
       xml:space="preserve"
       id="flowRoot1050"
       style="font-style:normal;font-weight:normal;font-size:40px;line-height:1.25;font-family:sans-serif;letter-spacing:0px;word-spacing:0px;fill:#000000;fill-opacity:1;stroke:none"
       transform="scale(0.26458333)"><flowRegion
         id="flowRegion1052"><rect
           id="rect1054"
           width="152.53304"
           height="44.446712"
           x="-717.20831"
           y="790.1795" /></flowRegion><flowPara
         id="flowPara1056">#FCF3B4</flowPara></flowRoot>    <flowRoot
       xml:space="preserve"
       id="flowRoot1058"
       style="font-style:normal;font-weight:normal;font-size:40px;line-height:1.25;font-family:sans-serif;letter-spacing:0px;word-spacing:0px;fill:#000000;fill-opacity:1;stroke:none"
       transform="matrix(0.26458333,0,0,0.26458333,0,-3.7041668)"><flowRegion
         id="flowRegion1060"><rect
           id="rect1062"
           width="247.48737"
           height="45.456902"
           x="-724.27936"
           y="810.38257" /></flowRegion><flowPara
         id="flowPara1064">#FCF3B4</flowPara></flowRoot>    <flowRoot
       transform="matrix(0.26458333,0,0,0.26458333,0,-17.991669)"
       style="font-style:normal;font-weight:normal;font-size:40px;line-height:1.25;font-family:sans-serif;letter-spacing:0px;word-spacing:0px;fill:#000000;fill-opacity:1;stroke:none"
       id="flowRoot1072"
       xml:space="preserve"><flowRegion
         id="flowRegion1068"><rect
           y="810.38257"
           x="-724.27936"
           height="45.456902"
           width="247.48737"
           id="rect1066" /></flowRegion><flowPara
         id="flowPara1070">#7e7673ff</flowPara></flowRoot>  </g>
</svg>
